{
    "AWSTemplateFormatVersion": "2010-09-09",
    "Description": "CF ANSIBLE",
    "Parameters" : {
        "Environment": {
            "Description": "Environment where the stack to be deployed (Dev or Stage or Prod)",
            "Type": "String",
            "Default" : "dev",
            "AllowedValues" : ["dev", "staging", "prod"]
        }
    },
    "Resources": {
        "CFPOLICY": {
            "Type": "AWS::IAM::ManagedPolicy",
            "Properties": {
                "Description": "Managed policy to allow ansible servers to use or spawn CF stacks",                
                "Path": "/",
                "ManagedPolicyName": {"Fn::Join" : [ "-", [ "IAM-Policy-CFAdmin", {"Ref" : "Environment" } ] ]},
                "PolicyDocument": {
                            "Version": "2012-10-17",
                            "Statement": [
                                {
                                    "Effect": "Allow",
                                    "Action": [
                                        "cloudformation:*"
                                    ],
                                    "Resource": "*"
                                },
                                {
                                    "Effect": "Allow",
                                    "Action": [
                                    "elasticmapreduce:TerminateJobFlows "
                                    ],
                                    "Resource": [
                                    "*"
                                    ] 
                                } 
                            ]
                }
            }
        }
    },
    "Outputs" : {
                "CFPOLICY" : {
                        "Description" : "Managed policy to allow ansible servers to use or spawn CF stacks",
                        "Value" : { "Ref" : "CFPOLICY" }
                }
        }
}
